{
  "project_info": {
    "project_number": "279023490419",
    "firebase_url": "https://posiek-a995e.firebaseio.com",
    "project_id": "posiek-a995e",
    "storage_bucket": "posiek-a995e.appspot.com"
  },
  "client": [
    {
      "client_info": {
        "mobilesdk_app_id": "1:279023490419:android:2cf52fe39349f981",
        "android_client_info": {
          "package_name": "com.example.posiek.posiek"
        }
      },
      "oauth_client": [
        {
          "client_id": "279023490419-lquamafku2qq7ldhu71l595b3plcv4ad.apps.googleusercontent.com",
          "client_type": 3
        }
      ],
      "api_key": [
        {
          "current_key": "AIzaSyDmseKv-XMTg-V32bOiaAyhJ58nVKQmzYM"
        }
      ],
      "services": {
        "analytics_service": {
          "status": 1
        },
        "appinvite_service": {
          "status": 1,
          "other_platform_oauth_client": []
        },
        "ads_service": {
          "status": 2
        }
      }
    }
  ],
  "configuration_version": "1"
}